Japan’s Responsible Consumption
…
OECD_sdr_data_normalized_scores_longer <- OECD_sdr_data_normalized_scores %>% 
  pivot_longer(cols = !country)

Now, we will see which countries have missing data.

missing_data_by_country1 <- OECD_sdr_data_normalized_scores_longer %>%
 group_by(country) %>%
 miss_var_summary() %>% 
 arrange(desc(pct_miss))

missing_data_by_country1

## # A tibble: 76 × 4
## # Groups:   country [38]
##    country         variable n_miss pct_miss
##    <chr>           <chr>     <int>    <num>
##  1 Switzerland     value        11    11.2 
##  2 Iceland         value        10    10.2 
##  3 Israel          value        10    10.2 
##  4 Austria         value         9     9.18
##  5 Czechia         value         8     8.16
##  6 Luxembourg      value         8     8.16
##  7 Hungary         value         7     7.14
##  8 Slovak Republic value         7     7.14
##  9 United Kingdom  value         5     5.10
## 10 Belgium         value         5     5.10
## # ℹ 66 more rows
…
